{
	"IcoMoonType": "selection",
	"icons": [
		{
			"icon": {
				"paths": [
					"M689.147 756.179v-267.821h64.986v-92.556h66.955v-185.112h47.263v185.112h64.986v92.556h64.986v535.642h-309.176v-267.821zM923.49 827.073v-17.723h-157.542v35.447h157.542v-17.723zM923.49 743.379v-16.739h-157.542v33.478h157.542v-16.739zM923.49 659.685v-17.723h-157.542v35.447h157.542v-17.723zM923.49 576.975v-17.723h-157.542v35.447h157.542v-17.723zM49.133 721.717v-292.437h192.989v584.874h-192.989v-292.437zM208.644 697.101v-31.508h-63.017v63.017h63.017v-31.508zM208.644 593.714v-32.493h-63.017v64.986h63.017v-32.493zM208.644 490.327v-31.508h-63.017v63.017h63.017v-31.508zM281.507 583.868v-430.286h364.315v860.572h-364.315v-430.286zM427.233 689.224v-64.986h-112.249v129.972h112.249v-64.986zM612.345 689.224v-64.986h-112.249v129.972h112.249v-64.986zM427.233 478.512v-64.986h-112.249v129.972h112.249v-64.986zM612.345 478.512v-64.986h-112.249v129.972h112.249v-64.986zM427.233 267.8v-64.986h-112.249v129.972h112.249v-64.986zM612.345 267.8v-64.986h-112.249v129.972h112.249v-64.986z"
				],
				"width": 1047,
				"grid": 0,
				"tags": [
					"ico-4"
				]
			},
			"properties": {
				"order": 1,
				"id": 0,
				"prevSize": 16,
				"code": 58880,
				"name": "build",
				"ligatures": ""
			}
		},
		{
			"icon": {
				"paths": [
					"M179.236 1009.206c-45.11-20.842-76.381-56.030-92.887-104.523-19.934-59.227-7.542-120.060 37.545-169.817 22.223-23.842 45.472-38.387 77.974-48.782 22.986-7.352 59.845-8.841 85.286-3.445 12.465 2.644 18.065 3.087 19.901 1.577 2.473-2.035 59.789-100.009 64.306-109.923 2.103-4.616 1.079-6.056-17.32-24.36-25.385-25.253-44.667-53.893-56.437-83.829-36.982-94.063-15.266-198.91 55.818-269.493 26.045-25.861 61.063-47.703 94.586-58.996 63.408-18.544 102.576-20.158 163.929 1.257 35.72 12.83 63.459 30.754 92.232 59.598 36.246 36.334 57.228 75.19 68.157 126.22 5.29 24.7 4.841 77.066-0.872 101.802-10.768 46.619-33.817 88.612-66.262 120.725-7.338 7.263-12.935 14.504-12.938 16.739 0 4.304 69.106 115.050 73.242 117.365 1.401 0.784 6.533 0.657 11.404-0.283 13.718-2.646 45.356-2.177 61.492 0.91 137.596 34.478 161.232 184.16 100.147 268.006-53.468 80.419-205.276 99.716-275.89-0.061-7.841-11.396-20.541-38.433-23.57-50.175-1.257-4.874-3.721-9.969-5.474-11.323-2.458-1.898-26.667-2.455-105.706-2.431-56.385 0.020-103.597 0.715-104.915 1.553-1.318 0.838-4.3 7.692-6.626 15.232-17.917 58.078-65.616 103.020-124.261 117.079-37.617 9.057-83.184 2.393-112.86-10.621zM634.604 814.546c1.072-1.354 3.962-8.665 6.423-16.246 9.066-27.931 22.92-50.013 44.862-71.507 12.015-11.77 14.384-15.072 12.975-18.088-0.948-2.029-16.332-26.787-34.186-55.018-20.256-32.029-33.64-51.329-35.596-51.329-1.724 0-9.714 2.301-17.755 5.113-49.736 17.392-106.19 18.774-154.439 3.781-8.665-2.693-17.546-4.909-19.735-4.925-3.15-0.024-10.547 11.328-35.447 54.401-17.306 29.937-32.105 56.089-32.887 58.115-1.081 2.801 1.443 6.846 10.531 16.874 14.596 16.107 27.373 37.508 34.305 57.46 2.861 8.234 5.985 16.964 6.944 19.401l1.743 4.431h105.157c81.774 0 105.59-0.547 107.105-2.462z"
				],
				"width": 1047,
				"grid": 0,
				"tags": [
					"ico-3"
				]
			},
			"properties": {
				"order": 2,
				"id": 0,
				"prevSize": 16,
				"code": 58881,
				"name": "rede",
				"ligatures": ""
			}
		},
		{
			"icon": {
				"paths": [
					"M476.738 1022.841c-93.043-9.047-181.711-43.632-258.046-100.651-24.812-18.534-78.28-72.002-96.814-96.814-53.695-71.884-86.061-151.14-99.084-242.629-3.298-23.167-3.298-100.897 0-124.064 16.69-117.248 65.809-216.634 146.557-296.536 78.737-77.912 176.82-125.613 291.97-141.992 23.161-3.295 100.903-3.295 124.064 0 117.817 16.759 215.682 65.169 295.845 146.343 90.838 91.984 140.972 208.209 145.573 337.478 2.99 84.007-14.295 163.991-51.661 239.055-27.465 55.173-51.467 88.377-96.281 133.191-45.724 45.724-78.696 69.369-135.934 97.48-47.26 23.211-94.92 38.010-148.68 46.167-24.612 3.735-92.106 5.441-117.509 2.971zM599.691 774.235l0.521-60.579-146.768 1.033-0.523 58.071c-0.288 31.939-0.089 59.2 0.44 60.58 0.761 1.982 16.161 2.4 73.386 1.992l72.423-0.517 0.521-60.579zM591.188 638.712c2.719-31.172 10.064-48.383 27.51-64.464 4.664-4.299 23.446-17.8 41.739-30.003 40.863-27.259 53.086-36.458 70.398-52.979 20.65-19.706 32.835-39.592 39.895-65.11 4.86-17.567 4.905-62.275 0.081-81.691-4.427-17.822-16.45-42.311-27.767-56.561-30.773-38.748-92.895-68.062-166.52-78.577-27.060-3.865-98.105-3.416-122.118 0.771-105.714 18.434-166.267 76.268-180.47 172.37-1.648 11.154-2.499 21.578-1.891 23.164 0.949 2.472 11.152 2.81 71.351 2.367l70.245-0.517 3.451-17.046c6.031-29.791 24.243-58.020 44.529-69.019 19.87-10.773 51.159-15.228 81.184-11.56 33.412 4.082 51.405 13.391 64.877 33.566 11.523 17.255 15.125 29.253 15.096 50.274-0.022 15.822-0.689 19.096-6.22 30.524-3.407 7.040-8.27 15.102-10.806 17.915-10.238 11.355-33.79 29.839-62.705 49.211-32.196 21.57-56.942 43.294-66.737 58.584-9.466 14.777-15.199 40.464-19.048 85.333-0.712 8.305-0.703 16.059 0.022 17.231 0.902 1.46 21.988 2.131 66.917 2.131h65.6l1.388-15.913z"
				],
				"width": 1047,
				"grid": 0,
				"tags": [
					"ico-2a"
				]
			},
			"properties": {
				"order": 3,
				"id": 0,
				"prevSize": 32,
				"code": 58883,
				"name": "question",
				"ligatures": ""
			}
		},
		{
			"icon": {
				"paths": [
					"M152.605 1022.852c1.812-0.762 2.285-41.541 0.502-43.324-0.405-0.405-11.761-1.161-25.235-1.68-29.226-1.125-40.943-4.064-59.030-14.809-20.195-11.998-38.635-36.615-42.468-56.695-0.67-3.511-1.884-5.972-2.697-5.469-3.483 2.153-3.997-38.302-3.984-313.859 0.020-279.599 0.56-320.65 4.191-314.923 1.119 1.765 1.652 0.937 1.673-2.597 0.020-2.853 3.588-12.297 7.937-20.985 13.087-26.148 38.106-45.479 66.53-51.407 7.433-1.55 129.532-2.156 424.378-2.106 347.645 0.059 415.79 0.511 425.474 2.825 28.532 6.815 51.277 24.758 64.256 50.688 4.349 8.689 7.921 18.132 7.937 20.985 0.020 3.534 0.554 4.362 1.673 2.597 1.020-1.608 2.123 2.497 2.91 10.831 1.813 19.198 1.259 598.28-0.583 610.11-0.843 5.415-1.675 8.96-1.848 7.877-0.173-1.083-2.346 3.993-4.829 11.281-5.702 16.73-17.127 33.414-29.674 43.332-20.465 16.177-35.031 20.926-68.771 22.42-14.259 0.632-26.204 1.412-26.545 1.735-1.703 1.612-1.117 42.443 0.62 43.173 1.083 0.455-27.274 0.9-63.017 0.988l-64.986 0.16 0.624-20.943c0.343-11.519-0.21-21.778-1.229-22.797-2.561-2.561-482.581-2.62-485.141-0.059-1.080 1.080-1.641 11.027-1.288 22.856l0.624 20.943-64.986-0.16c-35.742-0.088-64.1-0.532-63.017-0.988zM590.374 828.64c1.765-1.765 2.363-23.938 2.363-87.633v-85.27h85.422c69.892 0 85.829-0.49 87.659-2.696 1.595-1.922 2.088-21.56 1.718-68.432l-0.519-65.736-173.296-1.969-1.969-173.296h-135.88l-1.026 174.24-174.24 1.026-0.519 65.736c-0.37 46.872 0.122 66.51 1.718 68.432 1.831 2.206 17.767 2.696 87.659 2.696h85.422v85.27c0 63.695 0.598 85.867 2.363 87.633 1.741 1.741 19.255 2.363 66.561 2.363 47.306 0 64.82-0.622 66.561-2.363zM286.255 164.436c-0.634-1.652-0.834-16.092-0.443-32.088 0.688-28.219 0.901-29.474 7.167-42.201 11.191-22.732 35.461-40.145 63.123-45.29 6.579-1.223 11.506-2.962 10.949-3.863-0.557-0.901 70.155-1.625 157.138-1.608 86.983 0.016 156.98 0.772 155.55 1.679-1.687 1.070 0.778 2.048 7.026 2.788 24.16 2.861 53.13 20.999 64.905 40.637 8.518 14.206 10.649 26.23 9.993 56.4l-0.554 25.484h-80.162l-0.948-28.554c-1.177-35.452-4.925-46.204-18.665-53.538l-8.535-4.556h-257.975l-9.078 5.336c-13.923 8.185-17.032 17.269-18.073 52.809l-0.835 28.503-39.716 0.533c-34.114 0.458-39.879 0.109-40.869-2.471z"
				],
				"width": 1047,
				"grid": 0,
				"tags": [
					"ico-1"
				],
				"defaultCode": 58882
			},
			"properties": {
				"order": 4,
				"id": 0,
				"prevSize": 32,
				"name": "aid",
				"ligatures": "",
				"code": 58882
			}
		},
		{
			"icon": {
				"paths": [
					"M515.749 1018.454c-9.508-9.074-264.653-329.116-267.367-335.374-1.812-4.177-1.691-6.090 0.518-8.153 2.264-2.115 61.477-2.695 274.828-2.695 213.351 0 272.565 0.581 274.828 2.695 2.219 2.073 2.332 3.955 0.489 8.153-3.065 6.982-260.756 329.937-268.458 336.45-7.249 6.13-7.291 6.127-14.838-1.076zM248.47 430.257c-1.75-1.893-1.761-4.1-0.042-8.044 3.253-7.462 263.297-332.729 270.028-337.754 5.316-3.969 5.503-3.951 11.712 1.087 7.814 6.34 265.63 329.146 268.904 336.689 1.814 4.178 1.693 6.089-0.516 8.153-4.138 3.866-546.512 3.737-550.086-0.131z"
				],
				"width": 1047,
				"grid": 0,
				"tags": [
					"ico-5a"
				]
			},
			"properties": {
				"order": 5,
				"id": 0,
				"prevSize": 32,
				"code": 58884,
				"name": "move",
				"ligatures": ""
			}
		}
	],
	"height": 1024,
	"metadata": {},
	"preferences": {
		"showGlyphs": true,
		"showQuickUse": true,
		"fontPref": {
			"prefix": "icon-",
			"metadata": {},
			"metrics": {
				"emSize": 1024,
				"baseline": 6.25,
				"whitespace": 50
			},
			"resetPoint": 58880,
			"autoHost": false,
			"showMetrics": false
		},
		"imagePref": {
			"color": 0,
			"height": 32,
			"columns": 16,
			"margin": 16
		},
		"historySize": 100,
		"showCodes": true,
		"gridSize": 16,
		"quickUsageToken": {
			"Untitled Project 5": "MmMyYWYyM2FhMzk4NmFjNGNiZjU2ZDY0ZjY0NWJmZDQjMiMxMzg3MzkxOTQ3IyMj"
		},
		"showLiga": true
	}
}